{
    "transactionStatus": "Success",
    "errorMessage": null,
    "data": [
        {
            "id": 12,
            "sourceType": "Proposal",
            "account": "C&M",
            "currentPeriod": "P09",
            "p1": 0,
            "p2": 0,
            "p3": 0,
            "p4": 0,
            "p5": 0,
            "p6": 0,
            "p7": 2,
            "p8": 0,
            "p9": 0,
            "p10": 0,
            "p11": 0,
            "p12": 0,
            "p13": 0,
            "fileUploadDate": "2020-01-15",
            "skill1": "Microsoft Azure",
            "skill2": null,
            "skill3": null,
            "skill4": null,
            "comments": null,
            "tgView": "Cloud Migration & ATADATA",
            "probability": "50.0%",
            "financialYear": "FY20"
        }
    ]
}