{
  "transactionStatus": "Success",
  "errorMessage": null,
  "data": [
      {
          "id": 673,
          "account": "Northern Light",
          "requestType": "Roll Off",
          "sourceType": null,
          "probability": null,
          "currentPeriod": "P09",
          "fileUploadDate": "2020-01-29",
          "p1": 0,
          "p2": 0,
          "p3": 0,
          "p4": 0,
          "p5": 0,
          "p6": 0,
          "p7": 0,
          "p8": 0,
          "p9": 0,
          "p10": 1,
          "p11": 0,
          "p12": 0,
          "p13": 0,
          "totalPeriodCount": 1,
          "talentGroup": "Operations Transformation",
          "comments": null
      },
      {
          "id": 674,
          "account": "Liberty Mutual",
          "requestType": "Roll Off",
          "sourceType": null,
          "probability": null,
          "currentPeriod": "P09",
          "fileUploadDate": "2020-01-29",
          "p1": 0,
          "p2": 0,
          "p3": 0,
          "p4": 0,
          "p5": 0,
          "p6": 0,
          "p7": 0,
          "p8": 0,
          "p9": 1,
          "p10": 0,
          "p11": 0,
          "p12": 0,
          "p13": 0,
          "totalPeriodCount": 1,
          "talentGroup": "Operations Transformation",
          "comments": null
      },
      {
          "id": 672,
          "account": "TechnipFMC",
          "requestType": "Roll Off",
          "sourceType": null,
          "probability": null,
          "currentPeriod": "P09",
          "fileUploadDate": "2020-01-29",
          "p1": 0,
          "p2": 0,
          "p3": 0,
          "p4": 0,
          "p5": 0,
          "p6": 0,
          "p7": 0,
          "p8": 0,
          "p9": 1,
          "p10": 0,
          "p11": 0,
          "p12": 0,
          "p13": 0,
          "totalPeriodCount": 1,
          "talentGroup": "Operations Transformation",
          "comments": null
      },
      {
          "id": 670,
          "account": "Suncor",
          "requestType": "Roll Off",
          "sourceType": null,
          "probability": null,
          "currentPeriod": "P09",
          "fileUploadDate": "2020-01-29",
          "p1": 0,
          "p2": 0,
          "p3": 0,
          "p4": 0,
          "p5": 0,
          "p6": 0,
          "p7": 0,
          "p8": 1,
          "p9": 0,
          "p10": 0,
          "p11": 0,
          "p12": 0,
          "p13": 0,
          "totalPeriodCount": 1,
          "talentGroup": "Operations Transformation",
          "comments": null
      },
      {
          "id": 671,
          "account": "Vanguard",
          "requestType": "Roll Off",
          "sourceType": null,
          "probability": null,
          "currentPeriod": "P09",
          "fileUploadDate": "2020-01-29",
          "p1": 0,
          "p2": 0,
          "p3": 0,
          "p4": 0,
          "p5": 0,
          "p6": 0,
          "p7": 0,
          "p8": 1,
          "p9": 0,
          "p10": 0,
          "p11": 0,
          "p12": 0,
          "p13": 0,
          "totalPeriodCount": 1,
          "talentGroup": "Operations Transformation",
          "comments": null
      },
      {
          "id": 669,
          "account": "TECO",
          "requestType": "Roll Off",
          "sourceType": null,
          "probability": null,
          "currentPeriod": "P09",
          "fileUploadDate": "2020-01-29",
          "p1": 0,
          "p2": 0,
          "p3": 0,
          "p4": 0,
          "p5": 0,
          "p6": 0,
          "p7": 0,
          "p8": 0,
          "p9": 1,
          "p10": 0,
          "p11": 0,
          "p12": 0,
          "p13": 0,
          "totalPeriodCount": 1,
          "talentGroup": "Operations Transformation",
          "comments": null
      },
      {
          "id": 667,
          "account": "USDA",
          "requestType": "Roll Off",
          "sourceType": null,
          "probability": null,
          "currentPeriod": "P09",
          "fileUploadDate": "2020-01-29",
          "p1": 0,
          "p2": 0,
          "p3": 0,
          "p4": 0,
          "p5": 0,
          "p6": 0,
          "p7": 0,
          "p8": 1,
          "p9": 0,
          "p10": 0,
          "p11": 0,
          "p12": 0,
          "p13": 0,
          "totalPeriodCount": 1,
          "talentGroup": "Operations Transformation",
          "comments": null
      },
      {
          "id": 668,
          "account": "R1RCM",
          "requestType": "Roll Off",
          "sourceType": null,
          "probability": null,
          "currentPeriod": "P09",
          "fileUploadDate": "2020-01-29",
          "p1": 0,
          "p2": 0,
          "p3": 0,
          "p4": 0,
          "p5": 0,
          "p6": 0,
          "p7": 0,
          "p8": 1,
          "p9": 0,
          "p10": 0,
          "p11": 0,
          "p12": 0,
          "p13": 0,
          "totalPeriodCount": 1,
          "talentGroup": "Operations Transformation",
          "comments": null
      }
  ]
}