{
    "transactionStatus": "Success",
    "errorMessage": null,
    "data": [
        {
            "id": 101,
            "account": "Amazon",
            "sourceType": "Proposal",
            "probability": "80.0%",
            "currentPeriod": "P09",
            "fileUploadDate": "2020-01-15",
            "p1": 0,
            "p2": 0,
            "p3": 0,
            "p4": 0,
            "p5": 0,
            "p6": 0,
            "p7": 3,
            "p8": 0,
            "p9": 0,
            "p10": 0,
            "p11": 0,
            "p12": 0,
            "p13": 0,
            "totalPeriodCount": 3,
            "talentGroup": "Cloud Migration & ATADATA",
            "skill1": "Google Cloud Platform",
            "skill2": null,
            "skill3": null,
            "skill4": null,
            "comments": null,
            "financialYear": "FY20"
        },
        {
            "id": 100,
            "account": "Enbridge",
            "sourceType": "Proposal",
            "probability": "80.0%",
            "currentPeriod": "P09",
            "fileUploadDate": "2020-01-15",
            "p1": 0,
            "p2": 0,
            "p3": 0,
            "p4": 0,
            "p5": 0,
            "p6": 0,
            "p7": 12,
            "p8": 0,
            "p9": 0,
            "p10": 0,
            "p11": 0,
            "p12": 0,
            "p13": 0,
            "totalPeriodCount": 12,
            "talentGroup": "Cloud Migration & ATADATA",
            "skill1": "Amazon Web Services (AWS)",
            "skill2": null,
            "skill3": null,
            "skill4": null,
            "comments": null,
            "financialYear": "FY20"
        },
        {
            "id": 99,
            "account": "CALHEERS",
            "sourceType": "Sold",
            "probability": "100.0%",
            "currentPeriod": "P09",
            "fileUploadDate": "2020-01-15",
            "p1": 0,
            "p2": 0,
            "p3": 0,
            "p4": 0,
            "p5": 0,
            "p6": 0,
            "p7": 5,
            "p8": 0,
            "p9": 0,
            "p10": 0,
            "p11": 0,
            "p12": 0,
            "p13": 0,
            "totalPeriodCount": 5,
            "talentGroup": "Cloud Migration & ATADATA",
            "skill1": "Amazon Web Services (AWS)",
            "skill2": null,
            "skill3": null,
            "skill4": null,
            "comments": null,
            "financialYear": "FY20"
        },
        {
            "id": 98,
            "account": "Costco",
            "sourceType": "Proposal",
            "probability": "50.0%",
            "currentPeriod": "P09",
            "fileUploadDate": "2020-01-15",
            "p1": 0,
            "p2": 0,
            "p3": 0,
            "p4": 0,
            "p5": 0,
            "p6": 0,
            "p7": 2,
            "p8": 0,
            "p9": 0,
            "p10": 0,
            "p11": 0,
            "p12": 0,
            "p13": 0,
            "totalPeriodCount": 2,
            "talentGroup": "Cloud Migration & ATADATA",
            "skill1": "Microsoft Azure",
            "skill2": null,
            "skill3": null,
            "skill4": null,
            "comments": null,
            "financialYear": "FY20"
        },
        {
            "id": 97,
            "account": "Fahrenheit - Dell Technologies",
            "sourceType": "Sold",
            "probability": "100.0%",
            "currentPeriod": "P09",
            "fileUploadDate": "2020-01-15",
            "p1": 0,
            "p2": 0,
            "p3": 0,
            "p4": 0,
            "p5": 0,
            "p6": 0,
            "p7": 6,
            "p8": 0,
            "p9": 0,
            "p10": 0,
            "p11": 0,
            "p12": 0,
            "p13": 0,
            "totalPeriodCount": 6,
            "talentGroup": "Cloud Migration & ATADATA",
            "skill1": "Dell Boomi",
            "skill2": "SAP Basis",
            "skill3": "Dev ops",
            "skill4": null,
            "comments": null,
            "financialYear": "FY20"
        },
        {
            "id": 96,
            "account": "DPAS",
            "sourceType": "Sold",
            "probability": "100.0%",
            "currentPeriod": "P09",
            "fileUploadDate": "2020-01-15",
            "p1": 0,
            "p2": 0,
            "p3": 0,
            "p4": 0,
            "p5": 0,
            "p6": 0,
            "p7": 2,
            "p8": 0,
            "p9": 0,
            "p10": 0,
            "p11": 0,
            "p12": 0,
            "p13": 0,
            "totalPeriodCount": 2,
            "talentGroup": "Cloud Migration & ATADATA",
            "skill1": "Amazon Web Services (AWS)",
            "skill2": null,
            "skill3": null,
            "skill4": null,
            "comments": null,
            "financialYear": "FY20"
        },
        {
            "id": 95,
            "account": "Liberty Mutual - Cloud Infra",
            "sourceType": "Proposal",
            "probability": "50.0%",
            "currentPeriod": "P09",
            "fileUploadDate": "2020-01-15",
            "p1": 0,
            "p2": 0,
            "p3": 0,
            "p4": 0,
            "p5": 0,
            "p6": 0,
            "p7": 6,
            "p8": 0,
            "p9": 0,
            "p10": 0,
            "p11": 0,
            "p12": 0,
            "p13": 0,
            "totalPeriodCount": 6,
            "talentGroup": "Cloud Migration & ATADATA",
            "skill1": "Amazon Web Services (AWS)",
            "skill2": null,
            "skill3": null,
            "skill4": null,
            "comments": null,
            "financialYear": "FY20"
        },
        {
            "id": 94,
            "account": "Zurich/Dublin Need",
            "sourceType": "Proposal",
            "probability": "80.0%",
            "currentPeriod": "P09",
            "fileUploadDate": "2020-01-15",
            "p1": 0,
            "p2": 0,
            "p3": 0,
            "p4": 0,
            "p5": 0,
            "p6": 2,
            "p7": 0,
            "p8": 0,
            "p9": 0,
            "p10": 0,
            "p11": 0,
            "p12": 0,
            "p13": 0,
            "totalPeriodCount": 2,
            "talentGroup": "Cloud Migration & ATADATA",
            "skill1": "SAP Basis",
            "skill2": null,
            "skill3": null,
            "skill4": null,
            "comments": null,
            "financialYear": "FY20"
        },
        {
            "id": 93,
            "account": "Nissan",
            "sourceType": "Proposal",
            "probability": "50.0%",
            "currentPeriod": "P09",
            "fileUploadDate": "2020-01-15",
            "p1": 0,
            "p2": 0,
            "p3": 0,
            "p4": 0,
            "p5": 0,
            "p6": 8,
            "p7": 0,
            "p8": 0,
            "p9": 0,
            "p10": 0,
            "p11": 0,
            "p12": 0,
            "p13": 0,
            "totalPeriodCount": 8,
            "talentGroup": "Cloud Migration & ATADATA",
            "skill1": "Amazon Web Services (AWS)",
            "skill2": null,
            "skill3": null,
            "skill4": null,
            "comments": null,
            "financialYear": "FY20"
        },
        {
            "id": 92,
            "account": "Opentext",
            "sourceType": "Proposal",
            "probability": "80.0%",
            "currentPeriod": "P09",
            "fileUploadDate": "2020-01-15",
            "p1": 0,
            "p2": 0,
            "p3": 0,
            "p4": 0,
            "p5": 0,
            "p6": 4,
            "p7": 0,
            "p8": 0,
            "p9": 0,
            "p10": 0,
            "p11": 0,
            "p12": 0,
            "p13": 0,
            "totalPeriodCount": 4,
            "talentGroup": "Cloud Migration & ATADATA",
            "skill1": "Amazon Web Services (AWS)",
            "skill2": null,
            "skill3": null,
            "skill4": null,
            "comments": null,
            "financialYear": "FY20"
        },
        {
            "id": 91,
            "account": "Thomson Rueters",
            "sourceType": "Sold",
            "probability": "100.0%",
            "currentPeriod": "P09",
            "fileUploadDate": "2020-01-15",
            "p1": 0,
            "p2": 0,
            "p3": 0,
            "p4": 0,
            "p5": 0,
            "p6": 2,
            "p7": 0,
            "p8": 0,
            "p9": 0,
            "p10": 0,
            "p11": 0,
            "p12": 0,
            "p13": 0,
            "totalPeriodCount": 2,
            "talentGroup": "Cloud Migration & ATADATA",
            "skill1": "Amazon Web Services (AWS)",
            "skill2": null,
            "skill3": null,
            "skill4": null,
            "comments": null,
            "financialYear": "FY20"
        },
        {
            "id": 90,
            "account": "SNB",
            "sourceType": "Proposal",
            "probability": "80.0%",
            "currentPeriod": "P09",
            "fileUploadDate": "2020-01-15",
            "p1": 0,
            "p2": 0,
            "p3": 0,
            "p4": 0,
            "p5": 0,
            "p6": 3,
            "p7": 3,
            "p8": 0,
            "p9": 0,
            "p10": 0,
            "p11": 0,
            "p12": 0,
            "p13": 0,
            "totalPeriodCount": 6,
            "talentGroup": "Cloud Migration & ATADATA",
            "skill1": "Amazon Web Services (AWS)",
            "skill2": null,
            "skill3": null,
            "skill4": null,
            "comments": null,
            "financialYear": "FY20"
        },
        {
            "id": 89,
            "account": "SFG",
            "sourceType": "Proposal",
            "probability": "80.0%",
            "currentPeriod": "P09",
            "fileUploadDate": "2020-01-15",
            "p1": 0,
            "p2": 0,
            "p3": 0,
            "p4": 0,
            "p5": 0,
            "p6": 3,
            "p7": 0,
            "p8": 0,
            "p9": 0,
            "p10": 0,
            "p11": 0,
            "p12": 0,
            "p13": 0,
            "totalPeriodCount": 3,
            "talentGroup": "Cloud Migration & ATADATA",
            "skill1": "Amazon Web Services (AWS)",
            "skill2": null,
            "skill3": null,
            "skill4": null,
            "comments": null,
            "financialYear": "FY20"
        }
    ]
}